^C:\USERS\MIHAI F\DESKTOP\OOP\MAGAZIN\MAGAZIN\ITEM.CPP|C:\USERS\MIHAI F\DESKTOP\OOP\MAGAZIN\MAGAZIN\LISTA.CPP|C:\USERS\MIHAI F\DESKTOP\OOP\MAGAZIN\MAGAZIN\MAIN.CPP|C:\USERS\MIHAI F\DESKTOP\OOP\MAGAZIN\MAGAZIN\TESTITEM.CPP|C:\USERS\MIHAI F\DESKTOP\OOP\MAGAZIN\MAGAZIN\TESTLISTA.CPP
C:\USERS\MIHAI F\DESKTOP\OOP\MAGAZIN\MAGAZIN\DEBUG\VC141.PDB
C:\USERS\MIHAI F\DESKTOP\OOP\MAGAZIN\MAGAZIN\DEBUG\VC141.IDB
C:\USERS\MIHAI F\DESKTOP\OOP\MAGAZIN\MAGAZIN\DEBUG\ITEM.OBJ
C:\USERS\MIHAI F\DESKTOP\OOP\MAGAZIN\MAGAZIN\DEBUG\LISTA.OBJ
C:\USERS\MIHAI F\DESKTOP\OOP\MAGAZIN\MAGAZIN\DEBUG\MAIN.OBJ
C:\USERS\MIHAI F\DESKTOP\OOP\MAGAZIN\MAGAZIN\DEBUG\TESTITEM.OBJ
C:\USERS\MIHAI F\DESKTOP\OOP\MAGAZIN\MAGAZIN\DEBUG\TESTLISTA.OBJ
^C:\USERS\MIHAI F\DESKTOP\OOP\MAGAZIN\MAGAZIN\ITEM.CPP
C:\USERS\MIHAI F\DESKTOP\OOP\MAGAZIN\MAGAZIN\DEBUG\VC141.PDB
C:\USERS\MIHAI F\DESKTOP\OOP\MAGAZIN\MAGAZIN\DEBUG\VC141.IDB
C:\USERS\MIHAI F\DESKTOP\OOP\MAGAZIN\MAGAZIN\DEBUG\ITEM.OBJ
^C:\USERS\MIHAI F\DESKTOP\OOP\MAGAZIN\MAGAZIN\MAIN.CPP
C:\USERS\MIHAI F\DESKTOP\OOP\MAGAZIN\MAGAZIN\DEBUG\VC141.PDB
C:\USERS\MIHAI F\DESKTOP\OOP\MAGAZIN\MAGAZIN\DEBUG\VC141.IDB
^C:\USERS\MIHAI F\DESKTOP\OOP\MAGAZIN\MAGAZIN\TESTITEM.CPP
C:\USERS\MIHAI F\DESKTOP\OOP\MAGAZIN\MAGAZIN\DEBUG\VC141.PDB
C:\USERS\MIHAI F\DESKTOP\OOP\MAGAZIN\MAGAZIN\DEBUG\VC141.IDB
C:\USERS\MIHAI F\DESKTOP\OOP\MAGAZIN\MAGAZIN\DEBUG\TESTITEM.OBJ
^C:\USERS\MIHAI F\DESKTOP\OOP\MAGAZIN\MAGAZIN\LISTA.CPP|C:\USERS\MIHAI F\DESKTOP\OOP\MAGAZIN\MAGAZIN\TESTLISTA.CPP
C:\USERS\MIHAI F\DESKTOP\OOP\MAGAZIN\MAGAZIN\DEBUG\VC141.PDB
C:\USERS\MIHAI F\DESKTOP\OOP\MAGAZIN\MAGAZIN\DEBUG\VC141.IDB
C:\USERS\MIHAI F\DESKTOP\OOP\MAGAZIN\MAGAZIN\DEBUG\LISTA.OBJ
C:\USERS\MIHAI F\DESKTOP\OOP\MAGAZIN\MAGAZIN\DEBUG\TESTLISTA.OBJ
^C:\USERS\MIHAI F\DESKTOP\OOP\MAGAZIN\MAGAZIN\MAIN.CPP|C:\USERS\MIHAI F\DESKTOP\OOP\MAGAZIN\MAGAZIN\TESTREPOSITORY.CPP
C:\USERS\MIHAI F\DESKTOP\OOP\MAGAZIN\MAGAZIN\DEBUG\VC141.PDB
C:\USERS\MIHAI F\DESKTOP\OOP\MAGAZIN\MAGAZIN\DEBUG\VC141.IDB
C:\USERS\MIHAI F\DESKTOP\OOP\MAGAZIN\MAGAZIN\DEBUG\TESTREPOSITORY.OBJ
C:\USERS\MIHAI F\DESKTOP\OOP\MAGAZIN\MAGAZIN\DEBUG\MAIN.OBJ
^C:\USERS\MIHAI F\DESKTOP\OOP\MAGAZIN\MAGAZIN\TESTREPOSITORY.CPP
C:\USERS\MIHAI F\DESKTOP\OOP\MAGAZIN\MAGAZIN\DEBUG\VC141.PDB
C:\USERS\MIHAI F\DESKTOP\OOP\MAGAZIN\MAGAZIN\DEBUG\VC141.IDB
^C:\USERS\MIHAI F\DESKTOP\OOP\MAGAZIN\MAGAZIN\ITEM.CPP|C:\USERS\MIHAI F\DESKTOP\OOP\MAGAZIN\MAGAZIN\MAIN.CPP|C:\USERS\MIHAI F\DESKTOP\OOP\MAGAZIN\MAGAZIN\TESTITEM.CPP|C:\USERS\MIHAI F\DESKTOP\OOP\MAGAZIN\MAGAZIN\TESTREPOSITORY.CPP
C:\USERS\MIHAI F\DESKTOP\OOP\MAGAZIN\MAGAZIN\DEBUG\VC141.PDB
C:\USERS\MIHAI F\DESKTOP\OOP\MAGAZIN\MAGAZIN\DEBUG\VC141.IDB
C:\USERS\MIHAI F\DESKTOP\OOP\MAGAZIN\MAGAZIN\DEBUG\ITEM.OBJ
C:\USERS\MIHAI F\DESKTOP\OOP\MAGAZIN\MAGAZIN\DEBUG\TESTREPOSITORY.OBJ
C:\USERS\MIHAI F\DESKTOP\OOP\MAGAZIN\MAGAZIN\DEBUG\MAIN.OBJ
C:\USERS\MIHAI F\DESKTOP\OOP\MAGAZIN\MAGAZIN\DEBUG\TESTITEM.OBJ
^C:\USERS\MIHAI F\DESKTOP\OOP\MAGAZIN\MAGAZIN\ITEM.CPP|C:\USERS\MIHAI F\DESKTOP\OOP\MAGAZIN\MAGAZIN\TESTITEM.CPP|C:\USERS\MIHAI F\DESKTOP\OOP\MAGAZIN\MAGAZIN\TESTREPOSITORY.CPP
C:\USERS\MIHAI F\DESKTOP\OOP\MAGAZIN\MAGAZIN\DEBUG\VC141.PDB
C:\USERS\MIHAI F\DESKTOP\OOP\MAGAZIN\MAGAZIN\DEBUG\VC141.IDB
C:\USERS\MIHAI F\DESKTOP\OOP\MAGAZIN\MAGAZIN\DEBUG\ITEM.OBJ
C:\USERS\MIHAI F\DESKTOP\OOP\MAGAZIN\MAGAZIN\DEBUG\TESTREPOSITORY.OBJ
^C:\USERS\MIHAI F\DESKTOP\OOP\MAGAZIN\MAGAZIN\ITEM.CPP|C:\USERS\MIHAI F\DESKTOP\OOP\MAGAZIN\MAGAZIN\TESTREPOSITORY.CPP
C:\USERS\MIHAI F\DESKTOP\OOP\MAGAZIN\MAGAZIN\DEBUG\VC141.PDB
C:\USERS\MIHAI F\DESKTOP\OOP\MAGAZIN\MAGAZIN\DEBUG\VC141.IDB
C:\USERS\MIHAI F\DESKTOP\OOP\MAGAZIN\MAGAZIN\DEBUG\ITEM.OBJ
^C:\USERS\MIHAI F\DESKTOP\OOP\MAGAZIN\MAGAZIN\MAIN.CPP|C:\USERS\MIHAI F\DESKTOP\OOP\MAGAZIN\MAGAZIN\TESTITEM.CPP|C:\USERS\MIHAI F\DESKTOP\OOP\MAGAZIN\MAGAZIN\TESTREPOSITORY.CPP
C:\USERS\MIHAI F\DESKTOP\OOP\MAGAZIN\MAGAZIN\DEBUG\VC141.PDB
C:\USERS\MIHAI F\DESKTOP\OOP\MAGAZIN\MAGAZIN\DEBUG\VC141.IDB
C:\USERS\MIHAI F\DESKTOP\OOP\MAGAZIN\MAGAZIN\DEBUG\TESTITEM.OBJ
C:\USERS\MIHAI F\DESKTOP\OOP\MAGAZIN\MAGAZIN\DEBUG\TESTREPOSITORY.OBJ
^C:\USERS\MIHAI F\DESKTOP\OOP\MAGAZIN\MAGAZIN\MAIN.CPP|C:\USERS\MIHAI F\DESKTOP\OOP\MAGAZIN\MAGAZIN\SERVICE.CPP|C:\USERS\MIHAI F\DESKTOP\OOP\MAGAZIN\MAGAZIN\TESTREPOSITORY.CPP|C:\USERS\MIHAI F\DESKTOP\OOP\MAGAZIN\MAGAZIN\TESTSERVICE.CPP
C:\USERS\MIHAI F\DESKTOP\OOP\MAGAZIN\MAGAZIN\DEBUG\VC141.PDB
C:\USERS\MIHAI F\DESKTOP\OOP\MAGAZIN\MAGAZIN\DEBUG\VC141.IDB
C:\USERS\MIHAI F\DESKTOP\OOP\MAGAZIN\MAGAZIN\DEBUG\MAIN.OBJ
C:\USERS\MIHAI F\DESKTOP\OOP\MAGAZIN\MAGAZIN\DEBUG\SERVICE.OBJ
C:\USERS\MIHAI F\DESKTOP\OOP\MAGAZIN\MAGAZIN\DEBUG\TESTSERVICE.OBJ
C:\USERS\MIHAI F\DESKTOP\OOP\MAGAZIN\MAGAZIN\DEBUG\TESTREPOSITORY.OBJ
^C:\USERS\MIHAI F\DESKTOP\OOP\MAGAZIN\MAGAZIN\SERVICE.CPP
C:\USERS\MIHAI F\DESKTOP\OOP\MAGAZIN\MAGAZIN\DEBUG\VC141.PDB
C:\USERS\MIHAI F\DESKTOP\OOP\MAGAZIN\MAGAZIN\DEBUG\VC141.IDB
C:\USERS\MIHAI F\DESKTOP\OOP\MAGAZIN\MAGAZIN\DEBUG\SERVICE.OBJ
^C:\USERS\MIHAI F\DESKTOP\OOP\MAGAZIN\MAGAZIN\TESTSERVICE.CPP
C:\USERS\MIHAI F\DESKTOP\OOP\MAGAZIN\MAGAZIN\DEBUG\VC141.PDB
C:\USERS\MIHAI F\DESKTOP\OOP\MAGAZIN\MAGAZIN\DEBUG\VC141.IDB
^C:\USERS\MIHAI F\DESKTOP\OOP\MAGAZIN\MAGAZIN\SERVICE.CPP|C:\USERS\MIHAI F\DESKTOP\OOP\MAGAZIN\MAGAZIN\TESTSERVICE.CPP
C:\USERS\MIHAI F\DESKTOP\OOP\MAGAZIN\MAGAZIN\DEBUG\VC141.PDB
C:\USERS\MIHAI F\DESKTOP\OOP\MAGAZIN\MAGAZIN\DEBUG\VC141.IDB
C:\USERS\MIHAI F\DESKTOP\OOP\MAGAZIN\MAGAZIN\DEBUG\TESTSERVICE.OBJ
C:\USERS\MIHAI F\DESKTOP\OOP\MAGAZIN\MAGAZIN\DEBUG\SERVICE.OBJ
^C:\USERS\MIHAI F\DESKTOP\OOP\MAGAZIN\MAGAZIN\MAIN.CPP|C:\USERS\MIHAI F\DESKTOP\OOP\MAGAZIN\MAGAZIN\TESTSERVICE.CPP
C:\USERS\MIHAI F\DESKTOP\OOP\MAGAZIN\MAGAZIN\DEBUG\VC141.PDB
C:\USERS\MIHAI F\DESKTOP\OOP\MAGAZIN\MAGAZIN\DEBUG\VC141.IDB
C:\USERS\MIHAI F\DESKTOP\OOP\MAGAZIN\MAGAZIN\DEBUG\TESTSERVICE.OBJ
^C:\USERS\MIHAI F\DESKTOP\OOP\MAGAZIN\MAGAZIN\MAIN.CPP|C:\USERS\MIHAI F\DESKTOP\OOP\MAGAZIN\MAGAZIN\SERVICE.CPP|C:\USERS\MIHAI F\DESKTOP\OOP\MAGAZIN\MAGAZIN\TESTSERVICE.CPP
C:\USERS\MIHAI F\DESKTOP\OOP\MAGAZIN\MAGAZIN\DEBUG\VC141.PDB
C:\USERS\MIHAI F\DESKTOP\OOP\MAGAZIN\MAGAZIN\DEBUG\VC141.IDB
^C:\USERS\MIHAI F\DESKTOP\OOP\MAGAZIN\MAGAZIN\ITEM.CPP|C:\USERS\MIHAI F\DESKTOP\OOP\MAGAZIN\MAGAZIN\SERVICE.CPP|C:\USERS\MIHAI F\DESKTOP\OOP\MAGAZIN\MAGAZIN\TESTSERVICE.CPP
C:\USERS\MIHAI F\DESKTOP\OOP\MAGAZIN\MAGAZIN\DEBUG\VC141.PDB
C:\USERS\MIHAI F\DESKTOP\OOP\MAGAZIN\MAGAZIN\DEBUG\VC141.IDB
C:\USERS\MIHAI F\DESKTOP\OOP\MAGAZIN\MAGAZIN\DEBUG\ITEM.OBJ
^C:\USERS\MIHAI F\DESKTOP\OOP\MAGAZIN\MAGAZIN\MAIN.CPP|C:\USERS\MIHAI F\DESKTOP\OOP\MAGAZIN\MAGAZIN\UI.CPP
C:\USERS\MIHAI F\DESKTOP\OOP\MAGAZIN\MAGAZIN\DEBUG\VC141.PDB
C:\USERS\MIHAI F\DESKTOP\OOP\MAGAZIN\MAGAZIN\DEBUG\VC141.IDB
C:\USERS\MIHAI F\DESKTOP\OOP\MAGAZIN\MAGAZIN\DEBUG\UI.OBJ
C:\USERS\MIHAI F\DESKTOP\OOP\MAGAZIN\MAGAZIN\DEBUG\MAIN.OBJ
^C:\USERS\MIHAI F\DESKTOP\OOP\MAGAZIN\MAGAZIN\UI.CPP
C:\USERS\MIHAI F\DESKTOP\OOP\MAGAZIN\MAGAZIN\DEBUG\VC141.PDB
C:\USERS\MIHAI F\DESKTOP\OOP\MAGAZIN\MAGAZIN\DEBUG\VC141.IDB
C:\USERS\MIHAI F\DESKTOP\OOP\MAGAZIN\MAGAZIN\DEBUG\UI.OBJ
^C:\USERS\MIHAI F\DESKTOP\OOP\MAGAZIN\MAGAZIN\MAIN.CPP|C:\USERS\MIHAI F\DESKTOP\OOP\MAGAZIN\MAGAZIN\SERVICE.CPP|C:\USERS\MIHAI F\DESKTOP\OOP\MAGAZIN\MAGAZIN\TESTSERVICE.CPP|C:\USERS\MIHAI F\DESKTOP\OOP\MAGAZIN\MAGAZIN\UI.CPP
C:\USERS\MIHAI F\DESKTOP\OOP\MAGAZIN\MAGAZIN\DEBUG\VC141.PDB
C:\USERS\MIHAI F\DESKTOP\OOP\MAGAZIN\MAGAZIN\DEBUG\VC141.IDB
C:\USERS\MIHAI F\DESKTOP\OOP\MAGAZIN\MAGAZIN\DEBUG\UI.OBJ
C:\USERS\MIHAI F\DESKTOP\OOP\MAGAZIN\MAGAZIN\DEBUG\MAIN.OBJ
C:\USERS\MIHAI F\DESKTOP\OOP\MAGAZIN\MAGAZIN\DEBUG\SERVICE.OBJ
^C:\USERS\MIHAI F\DESKTOP\OOP\MAGAZIN\MAGAZIN\MAIN.CPP|C:\USERS\MIHAI F\DESKTOP\OOP\MAGAZIN\MAGAZIN\TESTSERVICE.CPP|C:\USERS\MIHAI F\DESKTOP\OOP\MAGAZIN\MAGAZIN\UI.CPP
C:\USERS\MIHAI F\DESKTOP\OOP\MAGAZIN\MAGAZIN\DEBUG\VC141.PDB
C:\USERS\MIHAI F\DESKTOP\OOP\MAGAZIN\MAGAZIN\DEBUG\VC141.IDB
C:\USERS\MIHAI F\DESKTOP\OOP\MAGAZIN\MAGAZIN\DEBUG\TESTSERVICE.OBJ
^C:\USERS\MIHAI F\DESKTOP\OOP\MAGAZIN\MAGAZIN\FILEREPOSITORY.CPP|C:\USERS\MIHAI F\DESKTOP\OOP\MAGAZIN\MAGAZIN\ITEM.CPP|C:\USERS\MIHAI F\DESKTOP\OOP\MAGAZIN\MAGAZIN\MAIN.CPP|C:\USERS\MIHAI F\DESKTOP\OOP\MAGAZIN\MAGAZIN\SERVICE.CPP|C:\USERS\MIHAI F\DESKTOP\OOP\MAGAZIN\MAGAZIN\TESTITEM.CPP|C:\USERS\MIHAI F\DESKTOP\OOP\MAGAZIN\MAGAZIN\TESTREPOSITORY.CPP|C:\USERS\MIHAI F\DESKTOP\OOP\MAGAZIN\MAGAZIN\TESTSERVICE.CPP|C:\USERS\MIHAI F\DESKTOP\OOP\MAGAZIN\MAGAZIN\UI.CPP
C:\USERS\MIHAI F\DESKTOP\OOP\MAGAZIN\MAGAZIN\DEBUG\VC141.PDB
C:\USERS\MIHAI F\DESKTOP\OOP\MAGAZIN\MAGAZIN\DEBUG\VC141.IDB
C:\USERS\MIHAI F\DESKTOP\OOP\MAGAZIN\MAGAZIN\DEBUG\FILEREPOSITORY.OBJ
C:\USERS\MIHAI F\DESKTOP\OOP\MAGAZIN\MAGAZIN\DEBUG\TESTITEM.OBJ
^C:\USERS\MIHAI F\DESKTOP\OOP\MAGAZIN\MAGAZIN\FILEREPOSITORY.CPP
C:\USERS\MIHAI F\DESKTOP\OOP\MAGAZIN\MAGAZIN\DEBUG\VC141.PDB
^C:\USERS\MIHAI F\DESKTOP\OOP\MAGAZIN\MAGAZIN\ITEM.CPP|C:\USERS\MIHAI F\DESKTOP\OOP\MAGAZIN\MAGAZIN\MAIN.CPP|C:\USERS\MIHAI F\DESKTOP\OOP\MAGAZIN\MAGAZIN\SERVICE.CPP|C:\USERS\MIHAI F\DESKTOP\OOP\MAGAZIN\MAGAZIN\TESTREPOSITORY.CPP|C:\USERS\MIHAI F\DESKTOP\OOP\MAGAZIN\MAGAZIN\TESTSERVICE.CPP|C:\USERS\MIHAI F\DESKTOP\OOP\MAGAZIN\MAGAZIN\UI.CPP
C:\USERS\MIHAI F\DESKTOP\OOP\MAGAZIN\MAGAZIN\DEBUG\VC141.PDB
C:\USERS\MIHAI F\DESKTOP\OOP\MAGAZIN\MAGAZIN\DEBUG\VC141.IDB
C:\USERS\MIHAI F\DESKTOP\OOP\MAGAZIN\MAGAZIN\DEBUG\ITEM.OBJ
^C:\USERS\MIHAI F\DESKTOP\OOP\MAGAZIN\MAGAZIN\MAIN.CPP|C:\USERS\MIHAI F\DESKTOP\OOP\MAGAZIN\MAGAZIN\SERVICE.CPP|C:\USERS\MIHAI F\DESKTOP\OOP\MAGAZIN\MAGAZIN\TESTREPOSITORY.CPP|C:\USERS\MIHAI F\DESKTOP\OOP\MAGAZIN\MAGAZIN\TESTSERVICE.CPP|C:\USERS\MIHAI F\DESKTOP\OOP\MAGAZIN\MAGAZIN\UI.CPP
C:\USERS\MIHAI F\DESKTOP\OOP\MAGAZIN\MAGAZIN\DEBUG\VC141.PDB
C:\USERS\MIHAI F\DESKTOP\OOP\MAGAZIN\MAGAZIN\DEBUG\VC141.IDB
C:\USERS\MIHAI F\DESKTOP\OOP\MAGAZIN\MAGAZIN\DEBUG\TESTREPOSITORY.OBJ
C:\USERS\MIHAI F\DESKTOP\OOP\MAGAZIN\MAGAZIN\DEBUG\UI.OBJ
^C:\USERS\MIHAI F\DESKTOP\OOP\MAGAZIN\MAGAZIN\ITEM.CPP|C:\USERS\MIHAI F\DESKTOP\OOP\MAGAZIN\MAGAZIN\MAIN.CPP
C:\USERS\MIHAI F\DESKTOP\OOP\MAGAZIN\MAGAZIN\DEBUG\VC141.PDB
C:\USERS\MIHAI F\DESKTOP\OOP\MAGAZIN\MAGAZIN\DEBUG\VC141.IDB
C:\USERS\MIHAI F\DESKTOP\OOP\MAGAZIN\MAGAZIN\DEBUG\ITEM.OBJ
C:\USERS\MIHAI F\DESKTOP\OOP\MAGAZIN\MAGAZIN\DEBUG\MAIN.OBJ
^C:\USERS\MIHAI F\DESKTOP\OOP\MAGAZIN\MAGAZIN\COSCUMPARATURI.CPP|C:\USERS\MIHAI F\DESKTOP\OOP\MAGAZIN\MAGAZIN\MAIN.CPP|C:\USERS\MIHAI F\DESKTOP\OOP\MAGAZIN\MAGAZIN\UI.CPP
C:\USERS\MIHAI F\DESKTOP\OOP\MAGAZIN\MAGAZIN\DEBUG\VC141.PDB
C:\USERS\MIHAI F\DESKTOP\OOP\MAGAZIN\MAGAZIN\DEBUG\VC141.IDB
C:\USERS\MIHAI F\DESKTOP\OOP\MAGAZIN\MAGAZIN\DEBUG\COSCUMPARATURI.OBJ
C:\USERS\MIHAI F\DESKTOP\OOP\MAGAZIN\MAGAZIN\DEBUG\UI.OBJ
^C:\USERS\MIHAI F\DESKTOP\OOP\MAGAZIN\MAGAZIN\COSCUMPARATURI.CPP
C:\USERS\MIHAI F\DESKTOP\OOP\MAGAZIN\MAGAZIN\DEBUG\VC141.PDB
C:\USERS\MIHAI F\DESKTOP\OOP\MAGAZIN\MAGAZIN\DEBUG\VC141.IDB
C:\USERS\MIHAI F\DESKTOP\OOP\MAGAZIN\MAGAZIN\DEBUG\COSCUMPARATURI.OBJ
^C:\USERS\MIHAI F\DESKTOP\OOP\MAGAZIN\MAGAZIN\MAIN.CPP|C:\USERS\MIHAI F\DESKTOP\OOP\MAGAZIN\MAGAZIN\SERVICE.CPP|C:\USERS\MIHAI F\DESKTOP\OOP\MAGAZIN\MAGAZIN\UI.CPP
C:\USERS\MIHAI F\DESKTOP\OOP\MAGAZIN\MAGAZIN\DEBUG\VC141.PDB
C:\USERS\MIHAI F\DESKTOP\OOP\MAGAZIN\MAGAZIN\DEBUG\VC141.IDB
C:\USERS\MIHAI F\DESKTOP\OOP\MAGAZIN\MAGAZIN\DEBUG\SERVICE.OBJ
C:\USERS\MIHAI F\DESKTOP\OOP\MAGAZIN\MAGAZIN\DEBUG\UI.OBJ
C:\USERS\MIHAI F\DESKTOP\OOP\MAGAZIN\MAGAZIN\DEBUG\MAIN.OBJ
^C:\USERS\MIHAI F\DESKTOP\LAB 8-9\MAGAZIN\MAGAZIN\COSCUMPARATURI.CPP|C:\USERS\MIHAI F\DESKTOP\LAB 8-9\MAGAZIN\MAGAZIN\FILEREPOSITORY.CPP|C:\USERS\MIHAI F\DESKTOP\LAB 8-9\MAGAZIN\MAGAZIN\ITEM.CPP|C:\USERS\MIHAI F\DESKTOP\LAB 8-9\MAGAZIN\MAGAZIN\MAIN.CPP|C:\USERS\MIHAI F\DESKTOP\LAB 8-9\MAGAZIN\MAGAZIN\SERVICE.CPP|C:\USERS\MIHAI F\DESKTOP\LAB 8-9\MAGAZIN\MAGAZIN\TESTITEM.CPP|C:\USERS\MIHAI F\DESKTOP\LAB 8-9\MAGAZIN\MAGAZIN\TESTREPOSITORY.CPP|C:\USERS\MIHAI F\DESKTOP\LAB 8-9\MAGAZIN\MAGAZIN\TESTSERVICE.CPP|C:\USERS\MIHAI F\DESKTOP\LAB 8-9\MAGAZIN\MAGAZIN\UI.CPP
C:\USERS\MIHAI F\DESKTOP\LAB 8-9\MAGAZIN\MAGAZIN\DEBUG\VC141.PDB
C:\USERS\MIHAI F\DESKTOP\LAB 8-9\MAGAZIN\MAGAZIN\DEBUG\VC141.IDB
C:\USERS\MIHAI F\DESKTOP\LAB 8-9\MAGAZIN\MAGAZIN\DEBUG\COSCUMPARATURI.OBJ
C:\USERS\MIHAI F\DESKTOP\LAB 8-9\MAGAZIN\MAGAZIN\DEBUG\FILEREPOSITORY.OBJ
C:\USERS\MIHAI F\DESKTOP\LAB 8-9\MAGAZIN\MAGAZIN\DEBUG\ITEM.OBJ
C:\USERS\MIHAI F\DESKTOP\LAB 8-9\MAGAZIN\MAGAZIN\DEBUG\MAIN.OBJ
C:\USERS\MIHAI F\DESKTOP\LAB 8-9\MAGAZIN\MAGAZIN\DEBUG\SERVICE.OBJ
C:\USERS\MIHAI F\DESKTOP\LAB 8-9\MAGAZIN\MAGAZIN\DEBUG\TESTITEM.OBJ
C:\USERS\MIHAI F\DESKTOP\LAB 8-9\MAGAZIN\MAGAZIN\DEBUG\TESTREPOSITORY.OBJ
C:\USERS\MIHAI F\DESKTOP\LAB 8-9\MAGAZIN\MAGAZIN\DEBUG\TESTSERVICE.OBJ
C:\USERS\MIHAI F\DESKTOP\LAB 8-9\MAGAZIN\MAGAZIN\DEBUG\UI.OBJ
^C:\USERS\MIHAI F\DESKTOP\LAB 8-9\MAGAZIN\MAGAZIN\COSCUMPARATURI.CPP
C:\USERS\MIHAI F\DESKTOP\LAB 8-9\MAGAZIN\MAGAZIN\DEBUG\VC141.PDB
^C:\USERS\MIHAI F\DESKTOP\LAB 8-9\MAGAZIN\MAGAZIN\FILEREPOSITORY.CPP
C:\USERS\MIHAI F\DESKTOP\LAB 8-9\MAGAZIN\MAGAZIN\DEBUG\VC141.PDB
^C:\USERS\MIHAI F\DESKTOP\LAB 8-9\MAGAZIN\MAGAZIN\ITEM.CPP
C:\USERS\MIHAI F\DESKTOP\LAB 8-9\MAGAZIN\MAGAZIN\DEBUG\VC141.PDB
^C:\USERS\MIHAI F\DESKTOP\LAB 8-9\MAGAZIN\MAGAZIN\MAIN.CPP
C:\USERS\MIHAI F\DESKTOP\LAB 8-9\MAGAZIN\MAGAZIN\DEBUG\VC141.PDB
^C:\USERS\MIHAI F\DESKTOP\LAB 8-9\MAGAZIN\MAGAZIN\SERVICE.CPP
C:\USERS\MIHAI F\DESKTOP\LAB 8-9\MAGAZIN\MAGAZIN\DEBUG\VC141.PDB
^C:\USERS\MIHAI F\DESKTOP\LAB 8-9\MAGAZIN\MAGAZIN\TESTITEM.CPP
C:\USERS\MIHAI F\DESKTOP\LAB 8-9\MAGAZIN\MAGAZIN\DEBUG\VC141.PDB
^C:\USERS\MIHAI F\DESKTOP\LAB 8-9\MAGAZIN\MAGAZIN\TESTREPOSITORY.CPP
C:\USERS\MIHAI F\DESKTOP\LAB 8-9\MAGAZIN\MAGAZIN\DEBUG\VC141.PDB
^C:\USERS\MIHAI F\DESKTOP\LAB 8-9\MAGAZIN\MAGAZIN\TESTSERVICE.CPP
C:\USERS\MIHAI F\DESKTOP\LAB 8-9\MAGAZIN\MAGAZIN\DEBUG\VC141.PDB
^C:\USERS\MIHAI F\DESKTOP\LAB 8-9\MAGAZIN\MAGAZIN\UI.CPP
C:\USERS\MIHAI F\DESKTOP\LAB 8-9\MAGAZIN\MAGAZIN\DEBUG\VC141.PDB
